Simulate data from a linear trend model — simulate_step_trend • abrupt
…
...
additional arguments that will be passed to
sampling_distribution.

    Examples

# \dontshow{
set.seed(1)
op <- options(digits = 3, cli.unicode = FALSE)
# }
sims <- simulate_step_trend(1:100, change_points = c(25, 75),
                            means = c(2, 8, 4))
sims
#> # A tibble: 100 x 3
#>        t trend     y
#>    <int> <dbl> <dbl>
#>  1     1     2  1.37
#>  2     2     2  2.18
#>  3     3     2  1.16
#>  4     4     2  3.60
#>  5     5     2  2.33
#>  6     6     2  1.18
#>  7     7     2  2.49
#>  8     8     2  2.74
#>  9     9     2  2.58
#> 10    10     2  1.69
#> # ... with 90 more rows
…
